Estimating mCPR for married women with custom EMU data
…
number of times clients interacted with a provider for contraceptive services (visits);

number of current contraceptive users of any method including those who are still using longer acting methods that were received in previous years (users).

emu_data <- readr::read_csv("emu_data.csv")
#> Parsed with column specification:
#> cols(
#>   division_numeric_code = col_double(),
#>   name = col_character(),
#>   year = col_double(),
#>   emu = col_double(),
#>   ss_type = col_character()
#> )
emu_data
#> # A tibble: 30 x 5
#>    division_numeric_code name      year    emu ss_type   
#>                    <dbl> <chr>    <dbl>  <dbl> <chr>     
#>  1                   120 Cameroon 2014. 0.0264 facilities
#>  2                   120 Cameroon 2016. 0.0358 facilities
#>  3                   120 Cameroon 2016. 0.0595 facilities
#>  4                   120 Cameroon 2018. 0.114  facilities
#>  5                   454 Malawi   2012. 0.360  visits    
#>  6                   454 Malawi   2014. 0.375  visits    
#>  7                   454 Malawi   2014. 0.392  visits    
#>  8                   454 Malawi   2016. 0.407  visits    
#>  9                   454 Malawi   2016. 0.411  visits    
#> 10                   454 Malawi   2018. 0.394  visits    
#> # … with 20 more rows
…
The point estimates for each indicator are long-format tibbles. Let’s take a look at the tibble for the indicator contraceptive_use_modern

results$Y$contraceptive_use_modern
#> # A tibble: 336 x 3
#>     year percentile  value
#>    <int> <chr>       <dbl>
#>  1  1989 mean       0.0373
#>  2  1990 mean       0.0405
#>  3  1991 mean       0.0432
#>  4  1992 mean       0.0460
#>  5  1993 mean       0.0488
#>  6  1994 mean       0.0520
#>  7  1995 mean       0.0558
#>  8  1996 mean       0.0605
#>  9  1997 mean       0.0679
#> 10  1998 mean       0.0813
#> # … with 326 more rows
…
